module gitlab.com/yudiagonal/sim-smk

go 1.20

require (
	github.com/joho/godotenv v1.5.1
	gorm.io/driver/mysql v1.5.2
	gorm.io/gorm v1.25.5
)

require (
	github.com/go-sql-driver/mysql v1.7.0 // indirect
	github.com/jinzhu/inflection v1.0.0 // indirect
	github.com/jinzhu/now v1.1.5 // indirect
)
